{
    "dt": -6.0,
    "steps_per_frame": 1000,
    "t_max": 0.3,

    "x_offset": 0.01,
    "y_offset": 0.02,
    "nx": 6,
    "ny": 4,
    "alpha": 0.2,
    "w": 0.04,
    "d": 0.01,
    "ro": 1000,

    "V0": -0.03,
    "U0": 0.05,
    "G": 9.81,
    "friction_coefficient": 0
}